{
  "build": {
    "beforeDevCommand": "npm run dev",
    "beforeBuildCommand": "npm run build",
    "devPath": "http://localhost:1420",
    "distDir": "../dist"
  },
  "package": {
    "productName": "gitlab-notifications",
    "version": "0.1.0-beta.1"
  },
  "tauri": {
    "allowlist": {
      "all": false,
      "shell": {
        "all": false,
        "open": true
      }
    },
    "windows": [
      {
        "title": "gitlab-native-ui",
        "width": 800,
        "height": 600
      }
    ],
    "security": {
      "csp": null
    },
    "bundle": {
      "active": true,
      "targets": "deb",
      "identifier": "gitlab-native-ui"
    }
  }
}
